{
    "/js/backend.js": "/js/backend.js",
    "/js/frontend.js": "/js/frontend.js",
    "/css/frontend.css": "/css/frontend.css",
    "/css/backend.css": "/css/backend.css",
    "/css/app.css": "/css/app.css",
    "/css/w3css.css": "/css/w3css.css",
    "/css/custom.css": "/css/custom.css",
    "/js/manifest.js": "/js/manifest.js",
    "/js/vendor.js": "/js/vendor.js",
    "/js/scripts.js": "/js/scripts.js"
}
